icd10,snomed,diagnosis
R10.0,9209005,Acute abdomen
R10.10,83132003,"Upper abdominal pain, unspecified"
R10.11,301717006,Right upper quadrant pain
R10.12,301715003,Left upper quadrant pain
R10.13,79922009,Epigastric pain
R10.2,274671002,Pelvic and perineal pain
R10.30,54586004,Lower abdominal pain
R10.31,301754002,Right lower quadrant pain
R10.32,301716002,Left lower quadrant pain
R10.33,443503005,Periumbilical pain
R10.84,102614006,Generalized abdominal pain
R10.9,21522001,Unspecified abdominal pain
J02.8,363746003,Acute pharyngitis due to other specified organisms
J02.9,363746003,"Acute pharyngitis, unspecified"
J06.9,54398005,"Acute upper respiratory infection, unspecified"
J20.0,233599001,Acute bronchitis due to Mycoplasma pneumonia
J20.1,195721005,Acute bronchitis due to Hemophilus influenza
J20.2,195720006,Acute bronchitis due to streptococcus
J20.3,195725001,Acute bronchitis due to coxsackievirus
J20.4,195721005,Acute bronchitis due to parainfluenza virus
J20.5,195721005,Acute bronchitis due to respiratory syncytial virus
J20.6,195728004,Acute bronchitis due to rhinovirus
J20.7,195729007,Acute bronchitis due to echovirus
J20.8,10509002,Acute bronchitis due to other specified organisms
J20.9,10509002,"Acute bronchitis, unspecified"
J45.909,195967001,"Unspecified asthma, uncomplicated"
M54.2,81680005,Cervicalgia
M54.5,279039007,Low back pain
M54.6,267981009,Pain in thoracic spine
M54.89,161891005,Other dorsalgia
M54.9,161891005,"Dorsalgia, unspecified"
R07.1,274664007,Chest pain on breathing
R07.2,71884009,Precordial pain
R07.81,2237002,Pleurodynia
R07.82,735940001,Intercostal pain
R07.89,29857009,Other chest pain
R07.9,29857009,"Chest pain, unspecified"
E11.9,313436004,Type 2 diabetes mellitus without complications
Z00.00,169443000,Encounter for general adult medical exam without abnormal findings
Z00.01,169443000,Encounter for general adult medical exam with abnormal findings
R51,25064002,Headache
I10,59621000,Essential (primary) hypertension
M25.511,15917011000119100,Pain in right shoulder
M25.512,15916971000119109,Pain in left shoulder
M25.519,45326000,Pain in unspecified shoulder
M25.521,15917091000119109,Pain in right elbow
M25.522,15917051000119104,Pain in left elbow
M25.529,74323005,Pain in unspecified elbow
M25.531,316991000119100,Pain in right wrist
M25.532,316851000119102,Pain in left wrist
M25.539,56608008,Pain in unspecified wrist
M25.551,316921000119102,Pain in right hip
M25.552,316781000119100,Pain in left hip
M25.559,49218002,Pain in unspecified hip
M25.561,316931000119104,Pain in right knee
M25.562,316791000119102,Pain in left knee
M25.569,30989003,Pain in unspecified knee
M25.571,15916931000119106,Pain in right ankle and joints of right foot
M25.572,15916891000119103,Pain in left ankle and joints of left foot
M25.579,202490009,Pain in unspecified ankle and joints of unspecified foot
M25.50,57676002,Pain in unspecified joint
M79.601,287046004,Pain in right arm
M79.602,287045000,Pain in left arm
M79.603,102556003,"Pain in arm, unspecified"
M79.604,287048003,Pain in right leg
M79.605,287047008,Pain in left leg
M79.606,10601006,"Pain in leg, unspecified"
M79.609,90834002,Pain in unspecified limb
M79.621,287046004,Pain in right upper arm
M79.622,287045000,Pain in left upper arm
M79.629,15749341000119107,Pain in unspecified upper arm
M79.631,316901000119106,Pain in right forearm
M79.632,444899003,Pain in left forearm
M79.639,444899003,Pain in unspecified forearm
M79.641,316911000119109,Pain in right hand
M79.642,316771000119103,Pain in left hand
M79.643,53057004,Pain in unspecified hand
M79.644,316881000119109,Pain in right finger(s)
M79.645,316741000119105,Pain in left finger(s)
M79.646,18876004,Pain in unspecified finger(s)
M79.651,316961000119107,Pain in right thigh
M79.652,316821000119105,Pain in left thigh
M79.659,78514002,Pain in unspecified thigh
M79.661,287048003,Pain in right lower leg
M79.662,287047008,Pain in left lower leg
M79.669,10601006,Pain in unspecified lower leg
M79.671,316891000119107,Pain in right foot
M79.672,316751000119107,Pain in left foot
M79.673,47933007,Pain in unspecified foot
M79.674,316971000119101,Pain in right toe(s)
M79.675,316831000119108,Pain in left toe(s)
M79.676,285365001,Pain in unspecified toe(s)
I48.0,282825002,Paroxysmal atrial fibrillation
I48.2,426749004,Chronic atrial fibrillation
I48.91,49436004,Unspecified atrial fibrillation
N30.00,68226007,Acute cystitis without hematuria
N30.01,366941000119107,Acute cystitis with hematuria
N30.10,197834003,Interstitial cystitis (chronic) without hematuria
N30.11,366941000119107,Interstitial cystitis (chronic) with hematuria
N30.20,197834003,Other chronic cystitis without hematuria
N30.21,366941000119107,Other chronic cystitis with hematuria
N30.30,74445007,Trigonitis without hematuria
N30.31,368371000119102,Trigonitis with hematuria
N30.40,450761000124106,Irradiation cystitis without hematuria
N30.41,11251000,Irradiation cystitis with hematuria
N30.80,38822007,Other cystitis without hematuria
N30.81,38822007,Other cystitis with hematuria
N30.90,38822007,"Cystitis, unspecified without hematuria"
N30.91,38822007,"Cystitis, unspecified with hematuria"
N39.0,68566005,"Urinary tract infection, site not specified"
